VHDL/L1101/simulation/qsim/mealy1101.msim.vcd
$comment
	File created using the following command:
		vcd file mealy1101.msim.vcd -direction
$end
$date
	Fri Apr 12 11:57:23 2024
$end
$version
	ModelSim Version 10.4b
$end
$timescale
	1ps
$end

$scope module mealy1101_vlg_vec_tst $end
$var reg 1 ! clk $end
$var reg 1 " reset $end
$var reg 1 # x $end
$var wire 1 $ z $end

$scope module i1 $end
$var wire 1 % gnd $end
$var wire 1 & vcc $end
$var wire 1 ' unknown $end
$var tri1 1 ( devclrn $end
$var tri1 1 ) devpor $end
$var tri1 1 * devoe $end
$var wire 1 + z~output_o $end
$var wire 1 , clk~input_o $end
$var wire 1 - clk~inputclkctrl_outclk $end
$var wire 1 . x~input_o $end
$var wire 1 / Selector1~0_combout $end
$var wire 1 0 reset~input_o $end
$var wire 1 1 reset~inputclkctrl_outclk $end
$var wire 1 2 state.S1~q $end
$var wire 1 3 Selector2~0_combout $end
$var wire 1 4 state.S2~q $end
$var wire 1 5 next_state.S3~0_combout $end
$var wire 1 6 state.S3~q $end
$var wire 1 7 next_state.S4~0_combout $end
$var wire 1 8 state.S4~q $end
$var wire 1 9 z_out~1_combout $end
$var wire 1 : z_out~q $end
$upscope $end
$upscope $end
$enddefinitions $end
#0
$dumpvars
0!
0"
1#
0$
0%
1&
x'
1(
1)
1*
0+
0,
0-
1.
1/
00
01
02
03
04
05
06
07
08
09
0:
$end
#10000
1!
1,
1-
12
13
0/
#20000
0!
0,
0-
#30000
1!
1,
1-
14
02
#40000
0#
0!
0.
0,
0-
15
03
#50000
1!
1,
1-
16
04
17
05
#60000
0!
0,
0-
#70000
1!
1,
1-
18
06
07
#80000
1#
0!
1.
0,
0-
19
1/
#90000
1!
1,
1-
08
12
1:
1+
1$
09
13
0/
#100000
0!
0,
0-
#110000
1!
1,
1-
14
02
0:
0+
0$
#120000
0#
0!
0.
0,
0-
15
03
#130000
1!
1,
1-
16
04
17
05
#140000
0!
0,
0-
#150000
1!
1,
1-
18
06
07
#160000
1#
0!
1.
0,
0-
19
1/
#170000
1!
1,
1-
08
12
1:
1+
1$
09
13
0/
#180000
0!
0,
0-
#190000
1!
1,
1-
14
02
0:
0+
0$
#200000
0#
0!
0.
0,
0-
15
03
#210000
1!
1,
1-
16
04
17
05
#220000
0!
0,
0-
#230000
1!
1,
1-
18
06
07
#240000
1#
0!
1.
0,
0-
19
1/
#250000
1!
1,
1-
08
12
1:
1+
1$
09
13
0/
#260000
0!
0,
0-
#270000
1!
1,
1-
14
02
0:
0+
0$
#280000
0!
0,
0-
#290000
1!
1,
1-
#300000
0!
0,
0-
#310000
1!
1,
1-
#320000
0!
0,
0-
#330000
1!
1,
1-
#340000
0!
0,
0-
#350000
1!
1,
1-
#360000
0#
0!
0.
0,
0-
15
03
#370000
1!
1,
1-
16
04
17
05
#380000
0!
0,
0-
#390000
1!
1,
1-
18
06
07
#400000
1#
0!
1.
0,
0-
19
1/
#410000
1!
1,
1-
08
12
1:
1+
1$
09
13
0/
#420000
0!
0,
0-
#430000
1!
1,
1-
14
02
0:
0+
0$
#440000
0#
0!
0.
0,
0-
15
03
#450000
1!
1,
1-
16
04
17
05
#455000
1#
1.
07
1/
#460000
0!
0#
0,
0.
0-
17
0/
#465000
1#
1.
07
1/
#470000
1!
0#
1,
0.
1-
17
0/
06
12
07
#480000
0!
1#
0,
1.
0-
13
#485000
0#
0.
03
#490000
1!
1,
1-
02
#500000
0!
0,
0-
#510000
1!
1,
1-
#520000
1#
0!
1.
0,
0-
1/
#525000
0#
0.
0/
#530000
1!
1,
1-
#540000
0!
0,
0-
#545000
1#
1.
1/
#550000
1!
1,
1-
12
13
0/
#555000
0#
0.
03
#560000
0!
0,
0-
#570000
1#
1!
1.
1,
1-
13
02
03
1/
#580000
0#
0!
0.
0,
0-
0/
#590000
1#
1!
1.
1,
1-
1/
#600000
0#
0!
0.
0,
0-
0/
#610000
1#
1!
1.
1,
1-
1/
#615000
0#
0.
0/
#620000
0!
1#
0,
1.
0-
1/
#630000
1!
1,
1-
12
13
0/
#635000
0#
0.
03
#640000
0!
1#
0,
1.
0-
13
#645000
0#
0.
03
#650000
1!
1,
1-
02
#655000
1#
1.
1/
#660000
0!
0,
0-
#670000
1!
1,
1-
12
13
0/
#680000
0!
0,
0-
#690000
1!
1,
1-
14
02
#695000
0#
0.
15
03
#700000
0!
0,
0-
#705000
1#
1.
05
13
#710000
1!
1,
1-
#720000
0#
0!
0.
0,
0-
15
03
#725000
1#
1.
05
13
#730000
1!
1,
1-
#740000
0#
0!
0.
0,
0-
15
03
#750000
1#
1!
1.
1,
1-
05
13
16
04
03
1/
#760000
0!
0,
0-
#765000
0#
0.
17
0/
#770000
1!
1,
1-
18
06
07
#775000
1#
1.
19
1/
#780000
0!
0#
0,
0.
0-
09
0/
#790000
1!
1,
1-
08
#795000
1#
1.
1/
#800000
0!
0,
0-
#810000
0#
1!
0.
1,
1-
0/
12
#820000
0!
0,
0-
#830000
1!
1,
1-
02
#835000
1#
1.
1/
#840000
0!
0#
0,
0.
0-
0/
#845000
1#
1.
1/
#850000
1!
0#
1,
0.
1-
0/
12
#860000
0!
1#
0,
1.
0-
13
#865000
0#
0.
03
#870000
1!
1,
1-
02
#880000
0!
0,
0-
#890000
1#
1!
1.
1,
1-
1/
#895000
0#
0.
0/
#900000
0!
0,
0-
#910000
1!
1,
1-
#920000
1#
0!
1.
0,
0-
1/
#930000
1!
1,
1-
12
13
0/
#940000
0!
0,
0-
#950000
0#
1!
0.
1,
1-
03
14
02
15
#960000
1#
0!
1.
0,
0-
05
13
#970000
0#
1!
0.
1,
1-
15
03
#975000
1#
1.
05
13
#980000
0!
0#
0,
0.
0-
15
03
#985000
1#
1.
05
13
#990000
1!
1,
1-
