VHDL/squ_reg/simulation/qsim/cplmReg.msim.vcd
$comment
	File created using the following command:
		vcd file cplmReg.msim.vcd -direction
$end
$date
	Tue Mar 26 11:16:02 2024
$end
$version
	ModelSim Version 10.4b
$end
$timescale
	1ps
$end

$scope module cplmReg_vlg_vec_tst $end
$var reg 1 ! S0 $end
$var reg 1 " S1 $end
$var reg 1 # clk $end
$var reg 4 $ parallel_data [3:0] $end
$var reg 1 % rst_n $end
$var wire 1 & reg_out [3] $end
$var wire 1 ' reg_out [2] $end
$var wire 1 ( reg_out [1] $end
$var wire 1 ) reg_out [0] $end

$scope module i1 $end
$var wire 1 * gnd $end
$var wire 1 + vcc $end
$var wire 1 , unknown $end
$var tri1 1 - devclrn $end
$var tri1 1 . devpor $end
$var tri1 1 / devoe $end
$var wire 1 0 reg_out[0]~output_o $end
$var wire 1 1 reg_out[1]~output_o $end
$var wire 1 2 reg_out[2]~output_o $end
$var wire 1 3 reg_out[3]~output_o $end
$var wire 1 4 clk~input_o $end
$var wire 1 5 clk~inputclkctrl_outclk $end
$var wire 1 6 S1~input_o $end
$var wire 1 7 S0~input_o $end
$var wire 1 8 parallel_data[0]~input_o $end
$var wire 1 9 Mux3~0_combout $end
$var wire 1 : rst_n~input_o $end
$var wire 1 ; rst_n~inputclkctrl_outclk $end
$var wire 1 < reg_out[0]~0_combout $end
$var wire 1 = reg_out[0]~reg0_q $end
$var wire 1 > parallel_data[1]~input_o $end
$var wire 1 ? Mux2~0_combout $end
$var wire 1 @ reg_out[1]~reg0_q $end
$var wire 1 A parallel_data[2]~input_o $end
$var wire 1 B Mux1~0_combout $end
$var wire 1 C reg_out[2]~reg0_q $end
$var wire 1 D parallel_data[3]~input_o $end
$var wire 1 E Mux0~0_combout $end
$var wire 1 F reg_out[3]~reg0_q $end
$upscope $end
$upscope $end
$enddefinitions $end
#0
$dumpvars
1!
0"
0#
b1001 $
1%
0)
0(
0'
0&
0*
1+
x,
1-
1.
1/
00
01
02
03
04
05
06
17
18
19
1:
1;
1<
0=
0>
1?
0@
0A
1B
0C
1D
1E
0F
$end
#3700
1#
14
15
1F
1C
1@
1=
10
11
12
13
1&
1'
1(
1)
0E
0B
0?
09
#5000
b1 $
b11 $
1>
0D
#7400
0#
04
05
#10000
b1 $
0>
#11100
1#
14
15
0F
0C
0@
0=
00
01
02
03
0&
0'
0(
0)
1E
1B
1?
19
#14800
0#
04
05
#15000
1"
b101 $
b1101 $
b1111 $
16
1>
1A
1D
0E
0B
0?
09
#18500
1#
14
15
#20000
0!
b1110 $
b1100 $
07
08
0>
1E
1B
#22200
0#
04
05
#25000
b1000 $
b0 $
b10 $
1>
0A
0D
1?
0B
0E
#25900
1#
14
15
1@
11
1(
#29600
0#
04
05
#30000
b1010 $
1D
1E
#33300
1#
14
15
1F
13
1&
#35000
1!
b1011 $
b1111 $
17
18
1A
0E
0?
#37000
0#
04
05
#40000
0"
b1101 $
b101 $
0!
b1 $
06
0>
0A
0D
07
0<
1B
19
#40700
1#
14
15
#44400
0#
04
05
#45000
b0 $
1"
1!
08
16
17
1<
09
0B
#48100
1#
14
15
0F
0@
01
03
0&
0(
#50000
b1 $
0!
18
07
19
#51800
0#
04
05
#55000
b11 $
b1011 $
0"
1!
1>
1D
06
17
1?
1E
1B
#55500
1#
14
15
1F
1C
1@
1=
10
11
12
13
1&
1'
1(
1)
0E
0B
0?
09
#59200
0#
04
05
#60000
b11 $
0D
#62900
1#
14
15
0F
0C
0@
0=
00
01
02
03
0&
0'
0(
0)
1E
1B
1?
19
#65000
b111 $
1"
0!
1A
16
07
0E
#66600
0#
04
05
#70000
b11 $
0"
0A
06
0<
1E
#70300
1#
14
15
#74000
0#
04
05
#75000
b10 $
b1010 $
b1110 $
08
1A
1D
#77700
1#
14
15
#80000
1!
b1111 $
b111 $
b11 $
17
18
0A
0D
1<
#81400
0#
04
05
#85000
b1 $
b1001 $
0>
1D
#85100
1#
14
15
1F
1C
1@
1=
10
11
12
13
1&
1'
1(
1)
0E
0B
0?
09
#88800
0#
04
05
#90000
1"
16
#92500
1#
14
15
0F
0C
0@
0=
00
01
02
03
0&
0'
0(
0)
#95000
b1011 $
1>
#96200
0#
04
05
#99900
1#
14
15
#100000
0!
b1010 $
b10 $
0"
b0 $
07
08
0>
0D
06
0<
1E
1B
1?
19
#103600
0#
04
05
#105000
b100 $
b1100 $
b1110 $
1>
1A
1D
#107300
1#
14
15
#110000
b1111 $
1"
b111 $
b101 $
18
0>
0D
16
1<
0?
0E
#111000
0#
04
05
#114700
1#
14
15
1C
1=
10
12
1'
1)
#115000
1!
b1 $
b0 $
17
08
0A
0B
09
#118400
0#
04
05
#120000
b10 $
b110 $
b111 $
18
1>
1A
#122100
1#
14
15
0C
0=
00
02
0'
0)
#125000
0!
b101 $
b1 $
b0 $
07
08
0>
0A
#125800
0#
04
05
#129500
1#
14
15
#130000
b1000 $
b1100 $
b1101 $
18
1A
1D
19
1B
1E
#133200
0#
04
05
#135000
b1111 $
b1110 $
08
1>
09
1?
#136900
1#
14
15
1F
1C
1@
11
12
13
1&
1'
1(
#140000
0"
1!
b1010 $
b1011 $
06
17
18
0A
0E
0B
0?
19
#140600
0#
04
05
#144300
1#
14
15
0F
0C
0@
1=
10
01
02
03
0&
0'
0(
1)
1E
1B
1?
09
#145000
b1001 $
1"
0!
b1101 $
b1100 $
08
0>
1A
16
07
0?
#148000
0#
04
05
#150000
b1110 $
b1010 $
b1011 $
18
1>
0A
19
1?
0B
#151700
1#
14
15
1F
1@
11
13
1&
1(
#155000
0"
1!
b1111 $
06
17
1A
0E
1B
0?
09
#155400
0#
04
05
#159100
1#
14
15
0F
1C
0@
0=
00
01
12
03
0&
1'
0(
0)
1E
0B
1?
19
#160000
b111 $
b110 $
1"
0!
08
0D
16
07
09
0E
1B
#162800
0#
04
05
#165000
b100 $
0"
0>
06
0<
1E
0B
19
#166500
1#
14
15
#170000
b0 $
b1 $
1"
18
0A
16
1<
0E
0?
#170200
0#
04
05
#173900
1#
14
15
0C
1=
10
02
0'
1)
#175000
1!
b0 $
17
08
09
#177600
0#
04
05
#180000
b10 $
b110 $
0"
b111 $
18
1>
1A
06
1?
1B
1E
#181300
1#
14
15
1F
1C
1@
0=
00
11
12
13
1&
1'
1(
0)
0E
0B
0?
19
#185000
b1111 $
b1101 $
b1001 $
1"
0#
0>
0A
1D
16
04
05
09
#188700
1#
14
15
0F
0C
0@
01
02
03
0&
0'
0(
#190000
0!
b1011 $
0"
07
1>
06
0<
1E
1B
1?
19
#192400
0#
04
05
#195000
b1010 $
1!
b1000 $
08
0>
17
1<
#196100
1#
14
15
1F
1C
1@
1=
10
11
12
13
1&
1'
1(
1)
0E
0B
0?
09
#199800
0#
04
05
#200000
b1100 $
1"
b1101 $
18
1A
16
#203500
1#
14
15
0F
0C
0@
0=
00
01
02
03
0&
0'
0(
0)
#205000
b101 $
b1 $
0"
b0 $
08
0A
0D
06
19
1B
1E
1?
#207200
0#
04
05
#210000
b1000 $
b1100 $
1A
1D
#210900
1#
14
15
1F
1C
1@
1=
10
11
12
13
1&
1'
1(
1)
0E
0B
0?
09
#214600
0#
04
05
#215000
1"
b1101 $
b101 $
b1 $
16
18
0A
0D
#218300
1#
14
15
0F
0C
0@
0=
00
01
02
03
0&
0'
0(
0)
#220000
0!
b11 $
b10 $
b1010 $
07
08
1>
1D
1E
1?
#222000
0#
04
05
#225000
b1110 $
1!
b1111 $
b111 $
18
1A
0D
17
0E
0?
#225700
1#
14
15
#229400
0#
04
05
#230000
0"
b101 $
0!
b1101 $
06
0>
1D
07
0<
1E
1B
1?
19
#233100
1#
14
15
#235000
b101 $
0D
#236800
0#
04
05
#240000
b1 $
b11 $
1!
b1011 $
1>
0A
1D
17
1<
#240500
1#
14
15
1F
1C
1@
1=
10
11
12
13
1&
1'
1(
1)
0E
0B
0?
09
#244200
0#
04
05
#245000
b1001 $
0>
#247900
1#
14
15
0F
0C
0@
0=
00
01
02
03
0&
0'
0(
0)
1E
1B
1?
19
#250000
b1 $
b11 $
1>
0D
#251600
0#
04
05
#255000
b10 $
b110 $
08
1A
#255300
1#
14
15
1F
1C
1@
1=
10
11
12
13
1&
1'
1(
1)
0E
0B
0?
09
#259000
0#
04
05
#260000
1"
0!
b100 $
b101 $
16
07
18
0>
1B
19
#262700
1#
14
15
0F
0@
01
03
0&
0(
#265000
b1101 $
b1111 $
b1110 $
08
1>
1D
09
1?
1E
#266400
0#
04
05
#270000
1!
b1100 $
17
0>
0E
0B
0?
#270100
1#
14
15
0C
0=
00
02
0'
0)
#273800
0#
04
05
#275000
b1000 $
0"
b0 $
b10 $
1>
0A
0D
06
1?
1B
1E
19
#277500
1#
14
15
1F
1C
1@
1=
10
11
12
13
1&
1'
1(
1)
0E
0B
0?
09
#281200
0#
04
05
#284900
1#
14
15
0F
0C
0@
0=
00
01
02
03
0&
0'
0(
0)
1E
1B
1?
19
#285000
b1010 $
b1000 $
0>
1D
#288600
0#
04
05
#290000
0!
1"
b0 $
07
16
0D
0E
0B
0?
09
#292300
1#
14
15
#295000
b1 $
b101 $
1!
b1101 $
18
1A
1D
17
#296000
0#
04
05
#299700
1#
14
15
#300000
0"
b101 $
06
0D
1E
1B
1?
19
#303400
0#
04
05
#305000
b1 $
1"
b1001 $
0A
1D
16
0B
0E
0?
09
#307100
1#
14
15
#310000
b1000 $
0!
b1100 $
b100 $
08
1A
0D
07
1B
#310800
0#
04
05
#314500
1#
14
15
1C
12
1'
#315000
0"
b101 $
06
18
0<
1E
0B
1?
19
#318200
0#
04
05
#320000
b111 $
1!
b11 $
b10 $
08
1>
0A
17
1<
#321900
1#
14
15
1F
0C
1@
1=
10
11
02
13
1&
0'
1(
1)
0E
1B
0?
09
#325000
b1010 $
1"
0!
b1110 $
b1111 $
18
1A
1D
16
07
19
1E
1?
#325600
0#
04
05
#329300
1#
14
15
1C
12
1'
#330000
b1101 $
0"
b1001 $
b1000 $
08
0>
0A
06
0<
09
0?
0B
0E
#333000
0#
04
05
#335000
b1010 $
1"
b1011 $
18
1>
16
1<
19
1?
1E
#336700
1#
14
15
0C
02
0'
#340000
b11 $
1!
b1 $
0"
b0 $
08
0>
0D
17
06
09
0?
0E
1B
#340400
0#
04
05
#344100
1#
14
15
0F
1C
0@
0=
00
01
12
03
0&
1'
0(
0)
1E
0B
1?
19
#345000
b100 $
b1100 $
1"
1A
1D
16
0E
0?
09
#347800
0#
04
05
#350000
b1101 $
b101 $
18
0D
#351500
1#
14
15
0C
02
0'
#355000
0!
0"
b100 $
b1100 $
07
06
08
1D
0<
1E
1B
1?
19
#355200
0#
04
05
#358900
1#
14
15
#360000
b1110 $
b1010 $
b1011 $
b11 $
18
1>
0A
0D
#362600
0#
04
05
#365000
b1 $
b101 $
b100 $
b1100 $
08
0>
1A
1D
#366300
1#
14
15
#370000
b1110 $
b1010 $
b10 $
0#
1>
0A
0D
04
05
#373700
1#
14
15
#375000
1!
b11 $
b1011 $
17
18
1D
1<
#377400
0#
04
05
#380000
b1010 $
08
#381100
1#
14
15
1F
1C
1@
1=
10
11
12
13
1&
1'
1(
1)
0E
0B
0?
09
#384800
0#
04
05
#385000
b1110 $
b1111 $
18
1A
#388500
1#
14
15
0F
0C
0@
0=
00
01
02
03
0&
0'
0(
0)
1E
1B
1?
19
#390000
b1101 $
0!
b101 $
b1 $
b0 $
08
0>
0A
0D
07
0<
#392200
0#
04
05
#395000
b10 $
b110 $
b111 $
18
1>
1A
#395900
1#
14
15
#399600
0#
04
05
#400000
b1111 $
b1011 $
b1010 $
08
0A
1D
#403300
1#
14
15
#405000
1!
b1110 $
b1111 $
17
18
1A
1<
#407000
0#
04
05
#410000
1"
0!
16
07
#410700
1#
14
15
1F
1C
1@
1=
10
11
12
13
1&
1'
1(
1)
#414400
0#
04
05
#415000
b1101 $
b101 $
0"
0>
0D
06
0<
0?
0E
0B
09
#418100
1#
14
15
#420000
b1 $
b0 $
1!
b1000 $
1"
08
0A
1D
17
16
1<
#421800
0#
04
05
#425000
0!
b0 $
0"
07
0D
06
0<
#425500
1#
14
15
#429200
0#
04
05
#430000
b100 $
1A
#432900
1#
14
15
#435000
1"
16
1<
1B
#436600
0#
04
05
#440000
b110 $
1!
0"
1>
17
06
0B
#440300
1#
14
15
0F
0C
0@
0=
00
01
02
03
0&
0'
0(
0)
1E
1B
1?
19
#444000
0#
04
05
#445000
b111 $
b11 $
0!
18
0A
07
0<
#447700
1#
14
15
#450000
b1011 $
b1001 $
1"
b1000 $
b1100 $
1!
08
0>
1A
1D
16
17
1<
09
0?
0B
0E
#451400
0#
04
05
#455000
b1110 $
0"
b1010 $
0!
1>
0A
06
07
0<
1?
1B
1E
19
#455100
1#
14
15
#458800
0#
04
05
#460000
b10 $
b11 $
b1 $
1"
1!
18
0>
0D
16
17
1<
09
0?
0E
0B
#462500
1#
14
15
#465000
b1001 $
b1011 $
1>
1D
#466200
0#
04
05
#469900
1#
14
15
#470000
b11 $
0D
#473600
0#
04
05
#475000
0"
b1 $
b1001 $
06
0>
1D
1E
1B
1?
19
#477300
1#
14
15
1F
1C
1@
1=
10
11
12
13
1&
1'
1(
1)
0E
0B
0?
09
#480000
b1101 $
b1100 $
b100 $
08
1A
0D
#481000
0#
04
05
#484700
1#
14
15
0F
0C
0@
0=
00
01
02
03
0&
0'
0(
0)
1E
1B
1?
19
#485000
1"
b110 $
b10 $
16
1>
0A
0E
0B
0?
09
#488400
0#
04
05
#490000
0!
b11 $
b1 $
07
18
0>
19
#492100
1#
14
15
1=
10
1)
#495000
0"
1!
b0 $
b10 $
06
17
08
1>
1E
1B
1?
09
#495800
0#
04
05
#499500
1#
14
15
1F
1C
1@
0=
00
11
12
13
1&
1'
1(
0)
0E
0B
0?
19
#500000
b110 $
0!
b111 $
b101 $
18
0>
1A
07
0<
#503200
0#
04
05
#505000
1"
b1 $
1!
16
0A
17
1<
09
#506900
1#
14
15
0F
0C
0@
01
02
03
0&
0'
0(
#510000
b11 $
0!
1>
07
1?
19
#510600
0#
04
05
#514300
1#
14
15
1@
1=
10
11
1(
1)
#515000
b1011 $
0"
b1111 $
1!
1A
1D
06
17
1B
1E
0?
09
#518000
0#
04
05
#520000
b1011 $
0!
0A
07
0<
#521700
1#
14
15
#525000
b11 $
0D
#525400
0#
04
05
#529100
1#
14
15
#530000
b10 $
b0 $
1"
1!
08
0>
16
17
1<
0E
0B
#532800
0#
04
05
#535000
b1000 $
b1001 $
0"
18
1D
06
1E
1B
#536500
1#
14
15
1F
1C
0@
0=
00
01
12
13
1&
1'
0(
0)
0E
0B
1?
19
#540000
b1011 $
0!
1>
07
0<
#540200
0#
04
05
#543900
1#
14
15
#545000
b1010 $
b1000 $
08
0>
#547600
0#
04
05
#550000
b1100 $
1A
#551300
1#
14
15
#555000
1"
1!
0#
16
17
04
05
1<
0?
09
#558700
1#
14
15
0F
0C
02
03
0&
0'
#560000
b100 $
0!
0D
07
1B
#562400
0#
04
05
#566100
1#
14
15
1C
12
1'
#569800
0#
04
05
#570000
b110 $
b10 $
b1010 $
1>
0A
1D
1?
0B
1E
#573500
1#
14
15
1F
0C
1@
11
02
13
1&
0'
1(
#575000
0"
1!
b1000 $
b1100 $
b100 $
06
17
0>
1A
0D
0E
1B
0?
19
#577200
0#
04
05
#580000
b110 $
1>
#580900
1#
14
15
0F
1C
0@
1=
10
01
12
03
0&
1'
0(
1)
1E
0B
1?
09
#584600
0#
04
05
#585000
0!
b100 $
07
0>
0<
#588300
1#
14
15
#590000
b101 $
1!
b111 $
18
1>
17
1<
#592000
0#
04
05
#595700
1#
14
15
1F
0C
1@
0=
00
11
02
13
1&
0'
1(
0)
0E
1B
0?
19
#599400
0#
04
05
#600000
b11 $
b10 $
0!
b0 $
08
0>
0A
07
0<
#603100
1#
14
15
#605000
1"
b1000 $
16
1D
1<
1E
0B
09
#606800
0#
04
05
#610000
b1100 $
b1101 $
b1111 $
b111 $
18
1>
1A
0D
19
1?
1B
0E
#610500
1#
14
15
0F
1C
1=
10
12
03
0&
1'
1)
#614200
0#
04
05
#615000
1!
0"
b1111 $
17
06
1D
1E
0B
0?
09
#617900
1#
14
15
1F
0C
0@
0=
00
01
02
13
1&
0'
0(
0)
0E
1B
1?
19
#620000
b1110 $
b110 $
08
0D
#621600
0#
04
05
#625000
b10 $
b0 $
0!
1"
b1 $
b1001 $
18
0>
0A
1D
07
16
0?
0B
1E
#625300
1#
14
15
1=
10
1)
#629000
0#
04
05
#630000
b1101 $
1!
b1100 $
08
1A
17
09
0E
#632700
1#
14
15
0F
0=
00
03
0&
0)
#635000
b1110 $
b110 $
b10 $
b11 $
18
1>
0A
0D
#636400
0#
04
05
#640000
b1 $
b0 $
08
0>
#640100
1#
14
15
#643800
0#
04
05
#645000
0"
0!
b100 $
b110 $
06
07
1>
1A
0<
1E
1B
1?
19
#647500
1#
14
15
#650000
b10 $
b0 $
0>
0A
#651200
0#
04
05
#654900
1#
14
15
#655000
b100 $
1A
#658600
0#
04
05
#660000
b101 $
1"
1!
b111 $
b11 $
18
1>
0A
16
17
1<
09
0?
0B
0E
#662300
1#
14
15
#665000
b1011 $
1D
#666000
0#
04
05
#669700
1#
14
15
#670000
0"
b1111 $
06
1A
1E
1B
1?
19
#673400
0#
04
05
#675000
b1110 $
0!
1"
08
07
16
09
#677100
1#
14
15
1F
1C
1@
11
12
13
1&
1'
1(
#680000
b110 $
b10 $
b11 $
0"
18
0A
0D
06
0<
19
0B
0E
0?
#680800
0#
04
05
#684500
1#
14
15
#685000
b1 $
1!
0>
17
1<
#688200
0#
04
05
#690000
b1001 $
0!
1D
07
0<
#691900
1#
14
15
#695000
b1101 $
b1111 $
1>
1A
#695600
0#
04
05
#699300
1#
14
15
#700000
1"
b111 $
1!
16
0D
17
1<
09
#703000
0#
04
05
#705000
b110 $
b10 $
0"
0!
08
0A
06
07
0<
19
#706700
1#
14
15
#710000
b0 $
b1 $
b101 $
18
0>
1A
#710400
0#
04
05
#714100
1#
14
15
#715000
b1101 $
1!
b1111 $
1>
1D
17
1<
#717800
0#
04
05
#720000
1"
b1011 $
b11 $
0!
b1 $
16
0>
0A
0D
07
#721500
1#
14
15
0F
0C
0@
1=
10
01
02
03
0&
0'
0(
1)
#725000
b0 $
b1000 $
b1010 $
08
1>
1D
09
1?
1E
#725200
0#
04
05
#728900
1#
14
15
1F
1@
0=
00
11
13
1&
1(
0)
#730000
0"
1!
b1000 $
06
17
0>
0E
1B
0?
19
#732600
0#
04
05
#735000
b1001 $
b1 $
1"
18
0D
16
09
0B
#736300
1#
14
15
0F
0@
01
03
0&
0(
#740000
b11 $
b1011 $
0#
1>
1D
04
05
#743700
1#
14
15
#745000
b1111 $
0"
b1101 $
b101 $
0>
1A
0D
06
1?
1B
1E
19
#747400
0#
04
05
#750000
0!
b111 $
b1111 $
07
1>
1D
0<
#751100
1#
14
15
#754800
0#
04
05
#755000
b1110 $
b1010 $
1!
b1000 $
08
0>
0A
17
1<
#758500
1#
14
15
1F
1C
1@
1=
10
11
12
13
1&
1'
1(
1)
0E
0B
0?
09
#760000
b0 $
b1 $
b101 $
18
1A
0D
#762200
0#
04
05
#765000
0!
b111 $
b1111 $
07
1>
1D
0<
#765900
1#
14
15
#769600
0#
04
05
#770000
b1011 $
b1001 $
b1 $
0>
0A
0D
#773300
1#
14
15
#775000
1"
b0 $
1!
16
08
17
1<
#777000
0#
04
05
#780000
b100 $
b110 $
0"
b111 $
18
1>
1A
06
#780700
1#
14
15
0F
0C
0@
0=
00
01
02
03
0&
0'
0(
0)
1E
1B
1?
19
#784400
0#
04
05
#785000
0!
1"
b110 $
07
16
08
0E
09
#788100
1#
14
15
1C
1@
11
12
1'
1(
#790000
b1110 $
1D
1E
#791800
0#
04
05
#795500
1#
14
15
1F
13
1&
#799200
0#
04
05
#800000
b1100 $
1!
0"
b100 $
0>
0D
17
06
0?
0E
0B
19
#802900
1#
14
15
0F
0C
0@
1=
10
01
02
03
0&
0'
0(
1)
1E
1B
1?
09
#805000
1"
16
0E
0B
0?
#806600
0#
04
05
#810000
b0 $
b1 $
0!
b1001 $
18
0A
1D
07
19
1E
#810300
1#
14
15
1F
13
1&
#814000
0#
04
05
#815000
b1011 $
0"
1>
06
0<
1?
0E
1B
09
#817700
1#
14
15
#820000
b1111 $
b1110 $
1"
08
1A
16
1<
1E
#821400
0#
04
05
#825000
1!
b110 $
b10 $
b11 $
17
18
0A
0D
0E
0B
0?
#825100
1#
14
15
0F
0=
00
03
0&
0)
#828800
0#
04
05
#830000
0"
0!
b1011 $
b1111 $
b1110 $
06
07
08
1A
1D
0<
1E
1B
1?
19
#832500
1#
14
15
#835000
b1100 $
b100 $
b101 $
18
0>
0D
#836200
0#
04
05
#839900
1#
14
15
#840000
b1 $
b11 $
b1011 $
1>
0A
1D
#843600
0#
04
05
#845000
1"
1!
b1010 $
b10 $
16
17
08
0D
1<
0E
0B
0?
09
#847300
1#
14
15
#850000
b11 $
18
#851000
0#
04
05
#854700
1#
14
15
#855000
b111 $
b101 $
b1101 $
0>
1A
1D
#858400
0#
04
05
#860000
0"
0!
b1111 $
06
07
1>
0<
1E
1B
1?
19
#862100
1#
14
15
#865000
b1110 $
b1010 $
08
0A
#865800
0#
04
05
#869500
1#
14
15
#870000
b10 $
1"
1!
b11 $
b111 $
18
1A
0D
16
17
1<
09
0B
0E
0?
#873200
0#
04
05
#875000
b101 $
b1101 $
0"
b1100 $
08
0>
1D
06
19
1?
1E
1B
#876900
1#
14
15
1F
1C
1@
1=
10
11
12
13
1&
1'
1(
1)
0E
0B
0?
09
#880000
b1110 $
1"
b1111 $
18
1>
16
#880600
0#
04
05
#884300
1#
14
15
0F
0C
0@
0=
00
01
02
03
0&
0'
0(
0)
#885000
b111 $
0"
b110 $
08
0D
06
19
1E
1B
1?
#888000
0#
04
05
#890000
0!
b100 $
07
0>
0<
#891700
1#
14
15
#895000
b101 $
1!
b111 $
18
1>
17
1<
#895400
0#
04
05
#899100
1#
14
15
1F
1C
1@
1=
10
11
12
13
1&
1'
1(
1)
0E
0B
0?
09
#900000
b1111 $
b1101 $
0>
1D
#902800
0#
04
05
#905000
b1001 $
1"
b1011 $
1>
0A
16
#906500
1#
14
15
0F
0C
0@
0=
00
01
02
03
0&
0'
0(
0)
#910000
b1010 $
b10 $
b0 $
08
0>
0D
#910200
0#
04
05
#913900
1#
14
15
#915000
b1 $
b1001 $
b1011 $
18
1>
1D
#917600
0#
04
05
#920000
0!
b1111 $
0"
b1110 $
b110 $
07
08
1A
0D
06
0<
1E
1B
1?
19
#921300
1#
14
15
#925000
b10 $
1"
b11 $
0#
18
0A
16
04
05
1<
0B
0E
#928700
1#
14
15
1@
1=
10
11
1(
1)
#930000
b1 $
1!
b1001 $
0"
0>
1D
17
06
0?
1E
1B
09
#932400
0#
04
05
#935000
b1011 $
0!
b11 $
1>
0D
07
0<
#936100
1#
14
15
#939800
0#
04
05
#940000
b10 $
b0 $
1!
08
0>
17
1<
#943500
1#
14
15
1F
1C
0@
0=
00
01
12
13
1&
1'
0(
0)
0E
0B
1?
19
#945000
b100 $
b1100 $
b1101 $
18
1A
1D
#947200
0#
04
05
#950000
b1111 $
0!
b111 $
b110 $
08
1>
0D
07
0<
#950900
1#
14
15
#954600
0#
04
05
#955000
1"
b100 $
1!
b1100 $
b1101 $
16
18
0>
1D
17
1<
0?
09
#958300
1#
14
15
0F
0C
02
03
0&
0'
#960000
0"
b1111 $
0!
06
1>
07
0<
1E
1B
1?
19
#962000
0#
04
05
#965700
1#
14
15
#969400
0#
04
05
#970000
b1011 $
b11 $
b10 $
b0 $
1!
08
0>
0A
0D
17
1<
#973100
1#
14
15
1F
1C
1@
1=
10
11
12
13
1&
1'
1(
1)
0E
0B
0?
09
#975000
b10 $
1>
#976800
0#
04
05
#980000
b110 $
b1110 $
1A
1D
#980500
1#
14
15
0F
0C
0@
0=
00
01
02
03
0&
0'
0(
0)
1E
1B
1?
19
#984200
0#
04
05
#985000
1"
b1111 $
b111 $
16
18
0D
0E
0B
0?
09
#987900
1#
14
15
#990000
0"
b110 $
b1110 $
06
08
1D
1E
1B
1?
19
#991600
0#
04
05
#995000
b1100 $
b1101 $
b101 $
18
0>
0D
#995300
1#
14
15
1F
1C
1@
1=
10
11
12
13
1&
1'
1(
1)
0E
0B
0?
09
#999000
0#
04
05
