VHDL/forbit/simulation/qsim/four_bit_counter.msim.vcd
$comment
	File created using the following command:
		vcd file four_bit_counter.msim.vcd -direction
$end
$date
	Tue Apr 16 10:06:30 2024
$end
$version
	ModelSim Version 10.4b
$end
$timescale
	1ps
$end

$scope module four_bit_counter_vlg_vec_tst $end
$var reg 1 ! clk $end
$var reg 1 " reset $end
$var wire 1 # out [3] $end
$var wire 1 $ out [2] $end
$var wire 1 % out [1] $end
$var wire 1 & out [0] $end

$scope module i1 $end
$var wire 1 ' gnd $end
$var wire 1 ( vcc $end
$var wire 1 ) unknown $end
$var tri1 1 * devclrn $end
$var tri1 1 + devpor $end
$var tri1 1 , devoe $end
$var wire 1 - out[0]~output_o $end
$var wire 1 . out[1]~output_o $end
$var wire 1 / out[2]~output_o $end
$var wire 1 0 out[3]~output_o $end
$var wire 1 1 clk~input_o $end
$var wire 1 2 tff0|Q~0_combout $end
$var wire 1 3 tff0|Q~feeder_combout $end
$var wire 1 4 reset~input_o $end
$var wire 1 5 reset~inputclkctrl_outclk $end
$var wire 1 6 tff0|Q~q $end
$var wire 1 7 tff1|Q~0_combout $end
$var wire 1 8 tff1|Q~feeder_combout $end
$var wire 1 9 tff1|Q~q $end
$var wire 1 : tff2|Q~0_combout $end
$var wire 1 ; tff2|Q~feeder_combout $end
$var wire 1 < tff2|Q~q $end
$var wire 1 = tff3|Q~0_combout $end
$var wire 1 > tff3|Q~q $end
$upscope $end
$upscope $end
$enddefinitions $end
#0
$dumpvars
0!
0"
0&
0%
0$
0#
0'
1(
x)
1*
1+
1,
0-
0.
0/
00
01
12
13
04
05
06
07
08
09
0:
0;
0<
0=
0>
$end
#10000
1!
11
16
1-
17
02
1&
18
03
#20000
0!
01
#30000
1!
11
06
0-
07
12
0&
08
13
19
1.
1:
17
1%
1;
18
#40000
0!
01
#50000
1!
11
16
1-
07
02
1&
08
03
#60000
0!
01
#70000
1!
11
06
0-
17
12
0&
18
13
09
0.
0:
07
0%
0;
08
1<
1/
1=
1:
1$
1;
#80000
0!
01
#90000
1!
11
16
1-
17
02
1&
18
03
#100000
0!
01
#110000
1!
11
06
0-
07
12
0&
08
13
19
1.
0:
17
1%
0;
18
#120000
0!
01
#130000
1!
11
16
1-
07
02
1&
08
03
#140000
0!
01
#150000
1!
11
06
0-
17
12
0&
18
13
09
0.
1:
07
0%
1;
08
0<
0/
0=
0:
0$
0;
1>
10
1=
1#
#160000
0!
01
#170000
1!
11
16
1-
17
02
1&
18
03
#180000
0!
01
#190000
1!
11
06
0-
07
12
0&
08
13
19
1.
1:
17
1%
1;
18
#200000
0!
01
#210000
1!
11
16
1-
07
02
1&
08
03
#220000
0!
01
#230000
1!
11
06
0-
17
12
0&
18
13
09
0.
0:
07
0%
0;
08
1<
1/
0=
1:
1$
1;
#240000
0!
01
#250000
1!
11
16
1-
17
02
1&
18
03
#260000
0!
01
#270000
1!
11
06
0-
07
12
0&
08
13
19
1.
0:
17
1%
0;
18
#280000
0!
01
#290000
1!
11
16
1-
07
02
1&
08
03
#300000
0!
01
#310000
1!
11
06
0-
17
12
0&
18
13
09
0.
1:
07
0%
1;
08
0<
0/
1=
0:
0$
0;
0>
00
0=
0#
#320000
0!
01
#330000
1!
11
16
1-
17
02
1&
18
03
#340000
0!
01
#350000
1!
11
06
0-
07
12
0&
08
13
19
1.
1:
17
1%
1;
18
#360000
0!
01
#370000
1!
11
16
1-
07
02
1&
08
03
#380000
0!
01
#390000
1!
11
06
0-
17
12
0&
18
13
09
0.
0:
07
0%
0;
08
1<
1/
1=
1:
1$
1;
#400000
0!
01
#410000
1!
11
16
1-
17
02
1&
18
03
#420000
0!
01
#430000
1!
11
06
0-
07
12
0&
08
13
19
1.
0:
17
1%
0;
18
#440000
0!
01
#450000
1!
11
16
1-
07
02
1&
08
03
#460000
0!
01
#470000
1!
11
06
0-
17
12
0&
18
13
09
0.
1:
07
0%
1;
08
0<
0/
0=
0:
0$
0;
1>
10
1=
1#
#480000
0!
01
#490000
1!
11
16
1-
17
02
1&
18
03
#500000
0!
01
#510000
1!
11
06
0-
07
12
0&
08
13
19
1.
1:
17
1%
1;
18
#520000
0!
01
#530000
1!
11
16
1-
07
02
1&
08
03
#540000
0!
01
#550000
1!
11
06
0-
17
12
0&
18
13
09
0.
0:
07
0%
0;
08
1<
1/
0=
1:
1$
1;
#560000
0!
01
#570000
1!
11
16
1-
17
02
1&
18
03
#580000
0!
01
#590000
1!
11
06
0-
07
12
0&
08
13
19
1.
0:
17
1%
0;
18
#600000
0!
01
#610000
1"
1!
14
15
11
09
0<
0>
00
0/
0.
07
0%
0$
0#
08
#620000
0!
01
#630000
0"
1!
04
05
11
16
1-
17
02
1&
18
03
#640000
0!
01
#650000
1!
11
06
0-
07
12
0&
08
13
19
1.
1:
17
1%
1;
18
#660000
0!
01
#670000
1!
11
16
1-
07
02
1&
08
03
#680000
0!
01
#690000
1!
11
06
0-
17
12
0&
18
13
09
0.
0:
07
0%
0;
08
1<
1/
1=
1:
1$
1;
#700000
0!
01
#710000
1!
11
16
1-
17
02
1&
18
03
#720000
0!
01
#730000
1!
11
06
0-
07
12
0&
08
13
19
1.
0:
17
1%
0;
18
#740000
0!
01
#750000
1!
11
16
1-
07
02
1&
08
03
#760000
0!
01
#770000
1!
11
06
0-
17
12
0&
18
13
09
0.
1:
07
0%
1;
08
0<
0/
0=
0:
0$
0;
1>
10
1=
1#
#780000
0!
01
#790000
1!
11
16
1-
17
02
1&
18
03
#800000
0!
01
#810000
1!
11
06
0-
07
12
0&
08
13
19
1.
1:
17
1%
1;
18
#820000
0!
01
#830000
1!
11
16
1-
07
02
1&
08
03
#840000
0!
01
#850000
1!
11
06
0-
17
12
0&
18
13
09
0.
0:
07
0%
0;
08
1<
1/
0=
1:
1$
1;
#860000
0!
01
#870000
1!
11
16
1-
17
02
1&
18
03
#880000
0!
01
#890000
1!
11
06
0-
07
12
0&
08
13
19
1.
0:
17
1%
0;
18
#900000
0!
01
#910000
1!
11
16
1-
07
02
1&
08
03
#920000
0!
01
#930000
1!
11
06
0-
17
12
0&
18
13
09
0.
1:
07
0%
1;
08
0<
0/
1=
0:
0$
0;
0>
00
0=
0#
#940000
0!
01
#950000
1!
11
16
1-
17
02
1&
18
03
#960000
0!
01
#970000
1!
11
06
0-
07
12
0&
08
13
19
1.
1:
17
1%
1;
18
#980000
0!
01
#990000
1!
11
16
1-
07
02
1&
08
03
