VHDL/la4bFA/simulation/qsim/LA4bFA.msim.vcd
$comment
	File created using the following command:
		vcd file LA4bFA.msim.vcd -direction
$end
$date
	Tue Mar 19 10:57:46 2024
$end
$version
	ModelSim Version 10.4b
$end
$timescale
	1ps
$end

$scope module LA4bFA_vlg_vec_tst $end
$var reg 4 ! A [3:0] $end
$var reg 4 " B [3:0] $end
$var reg 1 # Cin $end
$var wire 1 $ Cout $end
$var wire 1 % Sum [3] $end
$var wire 1 & Sum [2] $end
$var wire 1 ' Sum [1] $end
$var wire 1 ( Sum [0] $end

$scope module i1 $end
$var wire 1 ) gnd $end
$var wire 1 * vcc $end
$var wire 1 + unknown $end
$var tri1 1 , devclrn $end
$var tri1 1 - devpor $end
$var tri1 1 . devoe $end
$var wire 1 / Sum[0]~output_o $end
$var wire 1 0 Sum[1]~output_o $end
$var wire 1 1 Sum[2]~output_o $end
$var wire 1 2 Sum[3]~output_o $end
$var wire 1 3 Cout~output_o $end
$var wire 1 4 Cin~input_o $end
$var wire 1 5 A[0]~input_o $end
$var wire 1 6 B[0]~input_o $end
$var wire 1 7 Sum~0_combout $end
$var wire 1 8 B[1]~input_o $end
$var wire 1 9 A[1]~input_o $end
$var wire 1 : Sum~1_combout $end
$var wire 1 ; C~0_combout $end
$var wire 1 < C~1_combout $end
$var wire 1 = B[2]~input_o $end
$var wire 1 > A[2]~input_o $end
$var wire 1 ? Sum~2_combout $end
$var wire 1 @ B[3]~input_o $end
$var wire 1 A C~2_combout $end
$var wire 1 B A[3]~input_o $end
$var wire 1 C Cout~0_combout $end
$var wire 1 D Cout~1_combout $end
$var wire 1 E Sum~3_combout $end
$var wire 1 F Cout~2_combout $end
$var wire 1 G Cout~3_combout $end
$var wire 1 H P [3] $end
$var wire 1 I P [2] $end
$var wire 1 J P [1] $end
$var wire 1 K P [0] $end
$upscope $end
$upscope $end
$enddefinitions $end
#0
$dumpvars
b1 !
b1010 "
0#
0$
1(
1'
0&
1%
0)
1*
x+
1,
1-
1.
1/
10
01
12
03
04
15
06
17
18
09
1:
0;
0<
0=
0>
0?
1@
0A
0B
0C
0D
1E
0F
0G
zK
1J
zI
zH
$end
#5000
b101 !
b100 !
b10 "
b11 "
16
0@
05
1>
1C
0E
1?
11
02
0%
1&
#10000
b110 !
b111 "
b10 !
b1111 "
b1110 "
06
1=
1@
19
0>
1<
1F
0C
1A
0J
07
1E
12
0/
0(
1%
0?
1G
0E
0:
00
02
13
01
0&
1$
0%
0'
#15000
b1100 "
b0 !
b1000 "
b0 "
09
08
0=
0@
0F
0A
0<
1?
0G
1E
12
03
11
1&
0$
1%
0E
0?
01
02
0%
0&
#20000
b100 !
b1 "
b110 !
b1001 "
16
1@
19
1>
1C
1J
17
1E
1?
11
12
1/
1(
1%
1&
1:
10
1'
#25000
b1110 !
b1011 "
b1010 !
b1010 "
b1000 !
06
18
09
0>
1B
0C
07
0?
1G
0E
02
13
01
0/
0(
0&
1$
0%
#30000
b1001 !
b10 "
b11 "
16
0@
15
1<
0:
0G
1E
12
03
00
0'
0$
1%
1?
11
1&
#35000
b1 "
b0 "
06
08
0<
0J
1:
17
1/
10
1'
1(
0?
0:
00
01
0&
0'
#40000
b100 "
b1 !
b11 !
b10 !
05
19
0B
1=
1C
1J
07
0E
1?
11
02
0/
0(
0%
1&
1:
10
1'
#45000
b101 "
b1 "
b0 !
b1 !
15
09
16
0=
1D
0C
0J
0:
0?
01
00
0D
0'
0&
1E
1:
10
12
1%
1'
0E
02
0%
#50000
b0 "
b100 "
b0 !
05
06
1=
0:
1?
11
00
0'
1&
#55000
b100 !
b0 "
b101 !
0=
15
1>
17
1/
1(
#60000
b10 "
b1101 !
b1111 !
b11 "
b1011 !
19
0>
1B
16
18
1<
0?
1E
1:
07
0/
10
12
01
0&
1%
1'
0(
1?
11
1&
#65000
b1011 "
b1111 "
b1010 !
b1101 "
b1000 !
b1100 "
05
09
06
08
1=
1@
0<
0:
0?
1G
0E
02
13
01
00
0'
0&
1$
0%
1?
11
1&
#70000
b1101 "
16
17
1/
1(
#75000
b0 !
b101 "
b1 !
b111 "
b11 !
18
0@
15
19
0B
1F
1A
1<
0G
1:
07
0/
10
03
0$
1'
0(
1E
0?
01
12
1%
0&
#80000
b111 !
b1111 !
b1111 "
1@
1>
1B
1G
1?
11
13
1$
1&
#85000
b1101 "
08
1J
0:
00
0'
#90000
b1110 !
b1100 !
b100 !
b101 "
0@
05
09
0B
0<
0J
0G
1:
17
1/
10
03
0$
1'
1(
0?
0:
00
01
0&
0'
#95000
b100 "
b0 !
b1 !
b1001 !
15
0>
1B
06
0F
0A
1?
1G
0E
02
13
11
1&
1$
0%
0G
1E
12
03
0$
1%
#100000
b0 "
b10 "
b11 "
b1000 !
05
16
18
0=
1J
0?
01
0&
1:
10
1'
#105000
b1100 !
b111 "
b101 "
08
1=
1>
1F
1A
0J
1G
0E
0:
00
02
13
1$
0%
0'
#110000
b1110 !
b110 !
b100 "
b111 !
b110 "
06
18
15
19
0B
1<
0G
1E
12
03
0$
1%
1?
11
1&
#115000
b1110 "
b1010 "
b101 !
b1101 !
09
1B
0=
1@
0F
1C
0A
0<
1J
1G
0?
01
13
1$
0&
0E
1?
1:
10
11
02
0%
1&
1'
#120000
b1001 !
b1000 !
b1010 !
05
19
0>
1<
0C
0J
07
0?
01
0/
0(
0&
1?
0:
00
11
1&
0'
#125000
b1011 "
b1011 !
15
16
1:
10
1'
#130000
b11 "
0@
0G
1E
12
03
0$
1%
#135000
b1 "
b101 "
b11 !
b111 !
b1101 "
1>
0B
08
1=
1@
1F
1A
1J
1G
0E
0:
00
02
13
1$
0%
0'
#140000
b101 !
b100 !
b0 !
05
09
0>
0<
0F
0A
0J
1:
17
0?
01
1/
10
1'
1(
0&
1?
0G
1E
0:
00
12
03
11
1&
0$
1%
0'
#150000
b1100 "
b1000 !
b1100 !
1>
1B
06
1F
1A
0?
1G
0E
07
0/
02
13
01
0&
1$
0%
0(
1E
12
1%
#155000
b1110 "
b110 "
b1101 !
b101 !
b1 !
15
0>
0B
18
0@
0F
1C
0A
1J
17
1?
0G
03
11
1/
1(
1&
0$
0E
1:
10
02
0%
1'
#160000
b10 "
b11 "
b1001 !
b1101 !
1>
1B
16
0=
1D
1<
1E
0:
07
0/
00
12
1%
0'
0(
1G
0E
0?
01
02
13
1$
0%
0&
#165000
b111 "
b110 "
b101 !
0B
06
1=
0D
0<
1F
0C
1A
0G
1E
1:
17
1?
11
1/
10
12
03
0$
1%
1'
1(
1&
0?
01
0&
#170000
b100 "
b100 !
b0 !
b101 "
b1000 !
05
0>
1B
16
08
0F
0A
0J
1?
1G
0E
02
13
11
1&
1$
0%
0G
1E
0:
00
12
03
0$
1%
0'
#175000
b1010 !
b1101 "
b1001 "
b1000 "
b10 !
06
0=
1@
19
0B
1J
07
0?
01
0/
0(
0&
1:
10
1'
#180000
b1010 "
b11 !
b111 !
b101 !
b1101 !
15
09
1>
1B
18
1C
17
1?
1G
0E
02
13
11
1/
1(
1&
1$
0%
#185000
b1011 "
b1100 !
b1110 !
05
19
16
1<
1F
0C
1A
0J
0?
1E
0:
00
12
01
0&
1%
0'
#190000
b1111 "
b1110 "
06
1=
07
1?
11
0/
0(
1&
#195000
b1010 !
b10 !
b1111 "
16
0>
0B
17
0?
0E
02
01
1/
1(
0&
0%
#200000
b1011 "
b110 !
b1010 "
1>
06
0=
07
0/
0(
#205000
b10 "
b0 "
b111 !
b1111 !
b100 "
b101 "
15
1B
16
08
1=
0@
1J
1:
1?
11
10
1'
1&
0:
00
0'
#210000
b1101 !
b111 "
b101 !
b11 "
18
0=
09
0B
0F
1C
0A
0?
0G
1E
12
03
01
1D
0&
0$
1%
0E
02
0%
1E
12
1%
#215000
b1011 "
b1010 "
b1101 !
b1110 "
1B
06
1=
1@
0D
0<
1F
0C
1A
1G
1:
17
1?
11
1/
10
13
1$
1'
1(
1&
0?
01
0&
#220000
b1001 !
b1000 !
b1010 !
b1100 "
b100 "
b101 "
b10 !
16
08
0@
05
19
0>
0B
0F
1C
0A
0G
1?
11
03
0$
1&
0E
02
0%
#225000
b11 !
b1 !
b111 "
b1111 "
18
1@
15
09
1<
1D
1E
0:
07
0/
00
12
1%
0'
0(
0?
1G
0E
02
13
01
0&
1$
0%
#230000
b1011 "
b1010 "
06
0=
0D
0<
0C
1:
17
1?
11
1/
10
1'
1(
1&
0G
1E
0?
01
12
03
0$
1%
0&
#235000
b1001 !
b1011 !
b1000 "
b0 "
b100 "
08
1=
0@
19
1B
1C
1?
11
1&
#240000
b1010 !
b101 "
b1101 "
16
1@
05
1G
0E
02
13
1$
0%
#245000
b1111 "
b1011 !
15
18
1D
1<
1F
0C
1A
0J
0:
07
0/
00
0D
0'
0(
1E
0?
1:
10
01
12
1%
0&
1'
#250000
b1110 "
b110 "
b100 "
06
08
0@
0<
0F
1C
0A
1J
0:
17
0E
02
1/
00
0'
1(
0%
1?
0G
1E
1:
10
12
03
11
1&
0$
1%
1'
#255000
b1111 !
b111 !
b110 "
18
1>
0B
1F
0C
1A
1<
0J
0?
0E
02
01
0&
0%
1E
1?
0:
00
11
12
1%
1&
0'
#260000
b10 "
b110 !
05
0=
07
0?
01
0/
0(
0&
#265000
b100 !
b11 "
b1011 "
b0 !
b1001 "
16
08
1@
09
0>
0<
0F
0A
17
1G
0E
1?
11
02
13
1/
1(
1$
0%
1&
0?
0G
1E
12
03
01
0&
0$
1%
#270000
b1101 "
b1 !
b101 !
15
1>
1=
1F
1A
1:
07
0/
10
1'
0(
1G
0E
02
13
1$
0%
#275000
b111 !
b1100 "
b1110 "
b110 !
06
18
05
19
1<
0:
00
0'
1?
11
1&
#280000
b1110 !
b1010 "
b1010 !
b1011 !
0=
15
0>
1B
0F
0A
17
1E
12
1/
1(
1%
0E
02
0%
#285000
b1001 !
b1110 "
1=
09
1C
0<
1J
0?
01
0&
1?
1:
10
11
1&
1'
#290000
b110 "
b100 "
b1 !
b0 !
b10 !
b0 "
05
19
0B
08
0=
0@
0C
07
0G
0?
01
03
0/
0(
0$
0&
#295000
b1000 "
b1010 "
b1010 !
b1011 !
b1110 "
15
1B
18
1=
1@
1<
1F
1A
0J
17
1G
1?
11
13
1/
1(
1$
1&
0?
1E
0:
00
12
01
0&
1%
0'
#300000
b1111 "
b111 "
b101 "
b1 "
16
08
0=
0@
0F
0A
1J
1:
07
1?
0E
02
11
0/
10
1'
0(
1&
0%
0G
1E
0:
00
12
03
0$
1%
0'
#305000
b1001 !
b1000 !
05
09
0<
0J
1:
17
1/
10
1'
1(
0?
0:
00
01
0&
0'
#310000
b1100 !
b100 !
b1001 "
b1101 "
b110 !
b111 !
1=
1@
15
19
1>
0B
1F
1A
1<
1J
1:
07
0/
10
1'
0(
1G
0E
1?
0:
00
11
02
13
1$
0%
1&
0'
#315000
b1100 "
b11 !
b1011 !
b100 "
b1001 !
09
0>
1B
06
0@
0F
0A
0<
0J
0?
1:
17
1/
10
01
0&
1'
1(
0G
1E
1?
0:
00
11
12
03
0$
1%
1&
0'
#320000
b110 "
b10 "
b1 !
b1010 "
0B
18
0=
1@
1J
0?
01
0&
1:
10
1'
#325000
b1011 "
16
1<
0:
07
0/
00
0'
0(
1?
11
1&
#330000
b1001 !
b11 "
0@
1B
#335000
b1101 !
b1111 !
19
1>
1F
1A
0J
0?
01
0&
1G
0E
1:
10
02
13
1$
0%
1'
#340000
b1110 !
b1 "
b1010 !
08
05
0>
0F
0A
0<
1J
0:
17
1?
11
1/
00
0'
1(
1&
0G
1E
0?
1:
10
01
12
03
0$
1%
0&
1'
#350000
b0 "
b1000 "
b1011 !
b1010 "
15
06
18
1@
1<
0J
1G
0E
02
13
1$
0%
1?
0:
00
11
1&
0'
#355000
b1110 "
b1111 !
b110 "
b1110 !
b100 "
05
1>
08
1=
0@
0<
1F
1A
1J
07
0G
1E
12
03
0/
0(
0$
1%
0?
1G
0E
1:
10
02
13
01
0&
1$
0%
1'
#360000
b1100 !
b1000 !
b1100 "
1@
09
0>
0F
0A
0J
1E
1?
11
12
1%
1&
0E
0:
00
02
0%
0'
#365000
b0 !
b1000 "
b1 !
b1010 "
b11 !
b10 "
18
0=
0@
15
19
0B
1<
0?
0G
17
1/
03
01
0&
0$
1(
1?
11
1&
#370000
b11 "
b111 !
b1111 !
b1 "
1>
1B
16
08
1C
1J
0?
1E
1:
07
0/
10
12
01
1D
0&
1%
1'
0(
0:
00
0'
1G
0E
02
13
1$
0%
#375000
b1101 !
b1001 "
b1000 "
b1001 !
06
1@
09
0>
0D
0<
0C
0J
1:
17
1E
1?
11
12
1/
10
1'
1(
1%
1&
0E
0?
0:
00
01
02
0%
0&
0'
#380000
b1100 "
b1000 !
b0 !
b1110 "
b10 !
b110 "
b110 !
05
19
1>
0B
18
1=
0@
1<
1F
1A
07
0G
03
0/
0(
0$
1?
1E
12
11
1&
1%
#385000
b111 "
b11 "
b111 !
b1111 !
15
1B
16
0=
1:
1G
0E
0?
01
02
13
10
1'
1$
0%
0&
#390000
b1011 "
b1011 !
b1010 "
b1110 "
b1010 !
05
0>
06
1=
1@
0:
1E
12
00
0'
1%
#395000
b1000 !
b0 !
b100 !
b1010 "
0=
09
1>
0B
0F
1C
0A
0<
1J
0E
02
0%
0G
1E
1?
1:
10
11
12
03
0$
1%
1&
1'
#400000
b10 "
b101 !
b1101 !
b110 "
15
1B
1=
0@
1F
0C
1A
17
0?
01
1/
1(
0&
1G
0E
02
13
1$
0%
#405000
b111 "
b1111 !
b1011 !
b1111 "
b1010 !
b1011 "
05
19
0>
16
0=
1@
1<
0F
0A
0J
1E
12
1%
1?
0E
0:
00
02
11
1&
0%
0'
#410000
b1001 "
b10 !
b1000 "
b0 !
b0 "
b1 !
15
09
0B
06
08
0@
0<
0G
03
0$
0?
01
0&
#415000
b101 !
b100 "
1=
1>
1F
1A
1E
12
1%
#420000
b110 "
b111 "
b111 !
b110 !
b11 "
05
19
16
18
0=
1<
1?
11
1&
0?
01
0&
#425000
b10 !
b10 "
b0 !
06
09
0>
0<
0F
0A
1J
07
1?
11
0/
0(
1&
0?
0E
1:
10
02
01
0&
0%
1'
#430000
b100 !
b110 !
19
1>
1F
1A
1<
0J
1?
11
1&
1E
0?
0:
00
01
12
1%
0&
0'
#435000
b1010 "
b1000 "
b111 !
b11 !
15
0>
08
1@
0<
0F
0A
1J
17
1?
1G
0E
02
13
11
1/
1(
1&
1$
0%
0?
0G
1E
1:
10
12
03
01
0&
0$
1%
1'
#440000
b1011 !
b1001 "
b1001 !
b1 "
b11 "
b1000 !
16
18
0@
05
09
1B
#445000
b111 "
b110 "
b1010 !
b1011 !
15
19
06
1=
1<
1F
1A
0J
1?
11
1&
0?
1G
0E
0:
00
02
13
01
0&
1$
0%
0'
#450000
b11 !
b111 "
b10 !
16
05
0B
0G
1E
12
03
0$
1%
#455000
b110 !
b101 "
b100 !
b100 "
b101 !
06
08
15
09
1>
0<
1?
11
1&
0?
01
0&
#460000
b1100 "
b111 !
b1101 "
b110 !
05
19
16
1@
1J
1G
0E
02
13
1$
0%
1:
10
1'
#465000
b1110 !
b1010 !
b1111 "
b111 "
b1000 !
b110 "
b1001 !
06
18
0@
15
09
0>
1B
0F
1C
0A
1?
11
1&
0G
1E
12
03
0$
1%
#470000
b1 !
b101 !
b100 "
b100 !
08
05
1>
0B
1F
0C
1A
0J
07
0?
0E
02
01
0/
0(
0&
0%
1E
0:
00
12
1%
0'
#475000
b1100 !
b1000 !
b110 "
18
0>
1B
0F
1C
0A
1J
1?
1G
0E
02
13
11
1&
1$
0%
0G
1E
1:
10
12
03
0$
1%
1'
#480000
b1110 "
b0 !
0B
1@
#485000
b1010 "
b1011 "
b1 !
b101 !
b1101 !
15
1>
1B
16
0=
1D
1<
0:
1G
0E
02
13
00
0'
1$
0%
1E
0?
01
12
1%
0&
#490000
b1001 "
b1101 "
b1100 "
b1100 !
b100 !
05
0B
06
08
1=
0D
0<
1F
0C
1A
0J
1:
0E
1?
11
02
10
1'
0%
1&
0?
0:
00
01
0&
0'
#495000
b1110 "
b1010 "
b1011 "
b101 !
15
16
18
0=
1<
0F
1C
0A
1J
1:
1?
11
10
1D
1'
1&
0?
0G
1E
0:
00
12
03
01
0&
0$
1%
0'
1G
0E
02
13
1$
0%
#500000
b111 !
b11 "
b1111 !
b1 "
b0 "
06
08
0@
19
1B
0D
0<
1:
17
1/
10
1'
1(
0G
1E
1?
11
12
03
0$
1%
1&
#505000
b1011 !
b100 "
b1001 !
b1100 "
b1 !
b1110 "
18
1=
1@
09
0>
0B
#510000
b1111 "
b101 !
b1011 "
b11 "
b1 "
1>
16
08
0=
0@
0C
1D
0J
0:
07
0E
02
0/
00
0D
0'
0(
0%
1E
1:
10
12
1%
1'
0E
02
0%
#515000
b100 !
b0 "
b0 !
b100 "
b1100 "
b1110 "
06
18
1=
1@
05
0>
1C
1J
0:
1E
12
00
0'
1%
1:
10
1'
#520000
b10 !
b11 !
b110 "
0@
15
19
1<
1F
0C
1A
0J
0E
17
1/
02
0%
1(
0?
1E
0:
00
12
01
0&
1%
0'
#525000
b1011 !
b111 "
b11 "
b1010 !
16
0=
05
1B
0F
0A
1?
1G
0E
02
13
11
1&
1$
0%
0G
1E
12
03
0$
1%
#530000
b1 "
b1001 "
b10 !
b1101 "
0B
08
1=
1@
1C
0<
1J
0?
01
0&
1?
1:
10
11
1&
1'
#535000
b101 "
0@
0E
02
0%
#540000
b0 !
b1 !
b111 "
b1001 !
b11 "
18
0=
15
09
1B
0C
1<
1D
0?
0:
07
1E
12
0/
00
01
0D
0&
0'
0(
1%
1?
1G
0E
02
13
11
1&
1$
0%
0G
1E
12
03
0$
1%
#545000
b1011 "
b1001 "
b1 !
0B
08
1@
0<
0J
0?
1:
10
01
0&
1'
#550000
b101 !
b1000 "
b111 !
b1111 !
06
19
1>
1B
1C
1J
0:
17
1?
1G
0E
02
13
11
1/
00
0'
1(
1&
1$
0%
1:
10
1'
#555000
b1010 "
b1011 "
b111 !
0B
16
18
1D
1<
1F
0C
1A
0J
0G
1E
0:
07
0/
00
12
03
0D
0$
1%
0'
0(
1G
0E
0?
1:
10
01
02
13
1$
0%
0&
1'
#560000
b110 !
b1010 "
b1110 !
06
05
1B
0:
1E
12
00
0'
1%
#565000
b1110 "
b1100 !
b1100 "
b100 !
09
0B
08
1=
0<
0E
1?
11
02
0%
1&
0?
01
0&
#570000
b100 "
b0 !
b1 !
b11 !
b1011 !
15
19
0>
1B
0@
0F
1C
0A
1J
17
1?
11
1/
1(
1&
0G
1E
1:
10
12
03
0$
1%
1'
#575000
b101 "
b1111 !
b1110 !
b1100 !
05
09
1>
16
1F
0C
1A
0J
0?
01
0&
1G
0E
0:
00
02
13
1$
0%
0'
#580000
b111 "
b1111 "
b1101 !
b1111 !
15
19
18
1@
1<
1:
07
1E
12
0/
10
1'
0(
1%
1?
11
1&
#585000
b1011 "
b1011 !
b1001 !
09
0>
0=
0F
0A
1J
0E
0:
00
02
0%
0'
#590000
b1 !
b1010 "
b1000 "
b0 !
b1100 "
b100 !
b110 !
06
08
1=
05
19
1>
0B
0<
1F
1A
1:
0G
1E
12
03
10
1'
0$
1%
0?
1G
0E
02
13
01
0&
1$
0%
#595000
b1110 !
b1101 "
b1010 !
b1000 !
16
09
0>
1B
0F
0A
0J
17
1?
1E
12
11
1/
1(
1&
1%
0E
0:
00
02
0%
0'
#600000
b101 "
0@
0G
1E
12
03
0$
1%
#605000
b1100 !
b1110 !
b1101 "
1@
19
1>
1F
1A
1J
1G
0E
0?
01
02
13
1$
0%
0&
1E
1:
10
12
1%
1'
#610000
b1111 "
b1010 !
0>
18
1<
0J
1?
11
1&
0?
0:
00
01
0&
0'
#615000
b1011 !
b1011 "
0=
15
0F
0A
1?
1:
07
0/
10
11
1&
1'
0(
0E
02
0%
#620000
b11 !
b1010 "
b10 "
b0 "
b10 !
06
08
0@
05
0B
0<
1J
0:
0G
03
00
0'
0$
0?
1:
10
01
0&
1'
#625000
b1 "
b11 !
15
16
1<
0:
00
0'
1?
11
1&
#630000
b1 !
b101 "
b111 "
18
1=
09
1C
0?
01
1D
0&
1E
12
1%
#635000
b101 !
b110 "
b10 "
b0 "
06
08
0=
1>
0D
0<
0C
0J
1:
17
1/
10
1'
1(
0E
1?
0:
00
11
02
0%
1&
0'
#640000
b1101 !
b1111 !
b1011 !
b100 "
1=
19
0>
1B
1C
1J
1E
12
1%
1:
10
1'
#645000
b1100 "
b1010 !
b1101 "
b1110 !
05
1>
16
1@
1F
0C
1A
0?
1G
0E
02
13
01
0&
1$
0%
1E
12
1%
#650000
b1111 "
b110 !
b100 !
b1011 "
b11 "
b101 !
b10 "
15
09
0B
06
18
0=
0@
0F
1C
0A
0G
1?
11
03
0$
1&
0E
02
0%
#655000
b1 !
b0 "
b1001 !
b1011 !
b1010 !
b1 "
16
08
05
19
0>
1B
0C
0?
1E
12
01
0&
1%
#660000
b1001 "
b1110 !
b110 !
b111 !
15
1>
0B
1@
1<
1C
0:
07
1?
11
0/
00
1D
0'
0(
1&
0?
01
0&
1G
0E
02
13
1$
0%
#665000
b1011 "
b101 !
b1010 "
b100 !
05
09
06
18
0D
0<
1:
10
1'
0G
1E
1?
11
12
03
0$
1%
1&
#670000
b1110 "
b110 "
b0 !
b10 !
b111 "
19
0>
16
1=
0@
1F
0C
1A
1<
0J
17
0E
02
1/
1(
0%
1E
0?
0:
00
01
12
1%
0&
0'
#675000
b11 !
b1 !
b110 "
06
15
09
0<
0F
1C
0A
1J
1?
0E
1:
10
02
11
1&
0%
1'
#680000
b1001 !
b10 "
b1010 "
b1101 !
b1100 !
b1110 !
b1011 "
16
0=
1@
05
19
1>
1B
1<
1F
0C
1A
0J
1G
13
1$
0?
1E
0:
00
12
01
0&
1%
0'
#685000
b1111 "
b111 "
b1100 !
b110 "
09
06
1=
0@
0<
1J
07
1?
0E
02
11
0/
0(
1&
0%
0?
1:
10
01
0&
1'
#690000
b1000 !
b10 "
b1010 "
b1010 !
0=
1@
19
0>
0F
0A
1<
0J
1E
12
1%
0E
1?
0:
00
11
02
0%
1&
0'
#695000
b10 !
b1110 "
1=
0B
1F
1A
0?
0G
1E
12
03
01
0&
0$
1%
1G
0E
02
13
1$
0%
#700000
b1100 "
b11 !
b111 !
b101 !
15
09
1>
08
0<
17
1?
11
1/
1(
1&
0?
01
0&
#705000
b100 "
b110 "
b100 !
b110 !
05
19
18
0@
1<
07
0G
1E
12
03
0/
0(
0$
1%
1?
11
1&
#710000
b10 "
b1010 "
b1000 "
b100 !
09
08
0=
1@
0F
0A
0<
0?
1G
0E
02
13
01
0&
1$
0%
0G
1E
1?
11
12
03
0$
1%
1&
#715000
b1001 "
b0 !
b1 "
0>
16
0@
0?
17
0E
02
1/
01
0&
1(
0%
#720000
b1000 !
b101 "
b111 "
b1010 !
b1111 "
18
1=
1@
19
1B
1F
1A
1<
1?
1G
13
11
1&
1$
1E
0?
01
12
1%
0&
#725000
b1011 !
b1110 "
b1111 !
b1010 "
b1101 !
06
0=
15
09
1>
0<
0F
1C
0A
1J
1?
0E
1:
10
02
11
1&
0%
1'
#730000
b101 !
b1000 "
b1001 "
b1 !
b11 !
16
08
19
0>
0B
1D
1<
0C
0:
07
0?
0G
1E
12
03
01
0/
00
0D
0'
0(
0&
0$
1%
1G
0E
1?
11
02
13
1$
0%
1&
0G
1E
12
03
0$
1%
#735000
b1101 "
b1011 !
b1100 "
1B
06
1=
0<
1C
1G
0E
1:
17
0?
01
1/
10
02
13
1$
0%
1'
1(
0&
1?
11
1&
#740000
b1010 !
b1000 "
b1001 "
16
0=
05
0C
0?
01
0&
#745000
b10 !
b11 !
b1000 "
06
15
0B
0G
1E
12
03
0$
1%
#750000
b0 "
b111 !
b101 !
b100 !
05
09
1>
0@
0J
07
1?
0E
02
11
0/
0(
1&
0%
0:
00
0'
#755000
b10 "
b110 "
b1100 !
b1110 "
b1000 !
b1001 !
15
0>
1B
18
1=
1@
1C
1J
17
1G
13
1/
1(
1$
1:
10
1'
#760000
b1111 "
b1101 "
b1000 !
05
16
08
0C
0J
0:
00
0'
#765000
b1001 "
b0 !
b1 !
15
0B
0=
1:
07
0G
1E
0?
01
12
03
0/
10
1'
0(
0$
1%
0&
#770000
b1000 "
b1100 "
b1001 !
b1000 !
05
1B
06
1=
0:
1G
0E
1?
11
02
13
00
0'
1$
0%
1&
#775000
b1010 !
b100 "
b101 "
b1 "
b10 !
16
0=
0@
19
0B
1J
17
0?
0G
03
01
1/
1(
0&
0$
1:
10
1'
#780000
b11 "
b11 !
b1 !
b111 "
15
09
18
1=
1<
1C
0:
07
1?
11
0/
00
1D
0'
0(
1&
0?
01
0&
1E
12
1%
#785000
b1111 "
b1001 !
b1011 !
b1011 "
19
1B
0=
1@
0C
0J
1G
1?
11
13
0D
1$
1&
1:
10
1'
0E
02
0%
#790000
b1001 "
b1010 !
b1000 !
b1101 "
05
09
08
1=
0<
0:
17
0?
01
1/
00
0'
1(
0&
1?
11
1&
#795000
b1111 "
b1011 "
18
0=
1J
0?
01
0&
1:
10
1'
#800000
b1100 !
b100 !
b101 !
b1001 "
b1101 "
08
1=
15
1>
0B
1F
1A
0J
0:
07
0G
1E
12
03
0/
00
0'
0(
0$
1%
1G
0E
1:
10
02
13
1$
0%
1'
#805000
b1100 "
b100 "
b1101 !
b110 "
b10 "
1B
06
18
0=
0@
0F
1C
0A
1J
0:
17
1?
11
1/
00
0'
1(
1&
0G
1E
1:
10
12
03
0$
1%
1'
#810000
b1111 !
b1011 !
b1010 "
b1000 "
b1100 "
08
1=
1@
19
0>
1G
0E
02
13
1$
0%
#815000
b1010 !
b10 !
b110 !
b1110 "
b1010 "
18
0=
05
1>
0B
1F
0C
1A
1<
0J
07
0G
1E
12
03
0/
0(
0$
1%
1G
0E
0?
0:
00
01
02
13
1$
0%
0&
0'
#820000
b1011 "
b11 "
b1110 !
b111 "
1B
16
1=
0@
17
1?
11
1/
1(
1&
#825000
b1100 !
b101 "
b1 "
08
0=
09
0F
0A
0<
0?
01
0&
0G
1E
1?
11
12
03
0$
1%
1&
#830000
b1101 !
b101 "
1=
15
1F
1A
0?
1:
07
0/
10
01
0&
1'
0(
1G
0E
02
13
1$
0%
#835000
b1001 !
b1101 "
b1 !
b1111 "
18
1@
0>
0B
0F
1C
0A
1<
1J
1?
11
1D
1&
0G
1E
0?
0:
00
01
12
03
0$
1%
0&
0'
1G
0E
02
13
1$
0%
#840000
b1110 "
b0 !
b1010 "
b100 !
05
1>
06
0=
0D
0<
1:
10
1'
0G
1E
1?
11
12
03
0$
1%
1&
#845000
b110 !
b10 "
b0 "
b111 !
b100 "
b11 !
08
1=
0@
15
19
0>
0E
17
1/
02
0%
1(
#850000
b10 !
b0 "
b110 !
0=
05
1>
07
0/
0(
#855000
b1110 !
b1 "
b1100 !
b1001 "
b1011 "
b1000 !
16
18
1@
09
0>
1B
0C
17
1G
0?
01
13
1/
1(
1$
0&
#860000
b1001 !
b1010 "
b10 "
b0 "
b1101 !
06
08
0@
15
1>
0J
0G
1E
1?
11
12
03
0$
1%
1&
0:
00
0'
#865000
b100 "
b101 !
b110 "
0B
18
1=
1F
1A
1J
0E
0?
01
02
0%
0&
1E
1:
10
12
1%
1'
#870000
b100 !
b111 "
b1111 "
b0 !
b1000 !
16
1@
05
0>
1B
0F
1C
0A
1G
1?
11
13
1$
1&
0E
02
0%
#875000
b1010 !
b1011 "
b1001 "
b1011 !
b1000 "
b1111 !
b111 !
06
08
0=
15
19
1>
0B
0G
1E
12
03
0$
1%
#880000
b1010 "
b110 !
b1110 !
05
1B
18
1<
1F
0C
1A
0J
07
1G
0E
02
13
0/
0(
1$
0%
0?
1E
0:
00
12
01
0&
1%
0'
#885000
b10 "
b1100 !
b1000 !
b1001 !
b1 !
15
09
0>
0B
0@
0<
0F
0A
1J
17
1?
0G
03
11
1/
1(
1&
0$
0?
0E
1:
10
02
01
0&
0%
1'
#890000
b110 "
b111 "
b101 "
b1101 "
b0 !
b1000 !
05
1B
16
08
1=
1@
0J
1G
1?
11
13
1$
1&
0:
00
0'
#895000
b1010 !
b1001 "
b1000 "
b1010 "
b1011 !
06
18
0=
15
19
1<
0?
01
0&
1?
11
1&
#900000
b1111 !
b1101 !
b1000 "
b1100 !
08
05
09
1>
0<
07
0?
01
0/
0(
0&
1?
11
1&
#905000
b100 !
b1100 "
b0 !
1=
0>
0B
0G
1E
12
03
0$
1%
#910000
b10 !
b1110 "
18
19
1F
1A
1<
1G
0E
0?
01
02
13
1$
0%
0&
#915000
b110 "
b111 "
b11 !
b11 "
b1 !
15
09
16
0=
0@
0F
0A
1J
1:
1?
0G
1E
12
03
11
10
1'
1&
0$
1%
0E
0:
00
02
0%
0'
#920000
b101 !
b1 "
b100 !
b101 "
b110 !
08
1=
05
19
1>
1F
1A
0<
1:
17
1/
10
1'
1(
1E
0?
01
12
1%
0&
#925000
b1110 !
b1 "
b1100 !
0=
09
1B
0F
0A
0J
1?
1G
0E
02
13
11
1&
1$
0%
0G
1E
0:
00
12
03
0$
1%
0'
#930000
b0 "
b1000 !
b10 "
b1001 !
b1 !
b11 !
15
19
0>
0B
06
18
1<
0?
0E
02
01
0&
0%
1?
11
1&
#935000
b110 "
b111 "
b111 !
b101 "
b110 !
b1110 !
05
1>
1B
16
08
1=
0<
1F
1A
1J
1E
12
1%
0?
1G
0E
1:
10
02
13
01
0&
1$
0%
1'
#940000
b1101 "
b1001 "
b1000 "
b1010 !
b1010 "
b1011 !
15
0>
06
18
0=
1@
1<
0F
0A
0J
1E
12
1%
1?
0E
0:
00
02
11
1&
0%
0'
#945000
b11 !
b10 "
b11 "
b10 !
16
0@
05
0B
0G
03
0$
