VHDL/4bFA/simulation/qsim/demutiplex.msim.vcd
$comment
	File created using the following command:
		vcd file demutiplex.msim.vcd -direction
$end
$date
	Tue Mar 05 11:13:26 2024
$end
$version
	ModelSim Version 10.4b
$end
$timescale
	1ps
$end

$scope module mux1_vlg_vec_tst $end
$var reg 4 ! d [3:0] $end
$var reg 2 " select [1:0] $end
$var wire 1 # q $end

$scope module i1 $end
$var wire 1 $ gnd $end
$var wire 1 % vcc $end
$var wire 1 & unknown $end
$var tri1 1 ' devclrn $end
$var tri1 1 ( devpor $end
$var tri1 1 ) devoe $end
$var wire 1 * q~output_o $end
$var wire 1 + select[1]~input_o $end
$var wire 1 , d[2]~input_o $end
$var wire 1 - d[3]~input_o $end
$var wire 1 . d[0]~input_o $end
$var wire 1 / select[0]~input_o $end
$var wire 1 0 d[1]~input_o $end
$var wire 1 1 Mux0~0_combout $end
$var wire 1 2 Mux0~1_combout $end
$upscope $end
$upscope $end
$enddefinitions $end
#0
$dumpvars
b100 !
b0 "
0#
0$
1%
x&
1'
1(
1)
0*
0+
1,
0-
0.
0/
00
01
02
$end
#5000
b101 !
1.
11
12
1*
1#
#10000
b1 !
b11 !
10
0,
#15000
b10 "
b11 "
b10 !
b110 !
b100 !
0.
00
1,
1/
1+
02
0*
0#
#20000
b1 "
b101 !
b1 !
1.
0,
0+
01
12
1*
1#
02
0*
0#
#25000
b11 !
b11 "
1+
10
11
#30000
b10 !
b110 !
b100 !
b1 "
0+
0.
00
1,
01
12
1*
1#
02
0*
0#
#35000
b1100 !
b1000 !
b1010 !
b11 "
1+
10
0,
1-
11
12
1*
1#
#40000
b10 "
b1110 !
b0 "
1,
0/
0+
01
02
0*
0#
#45000
b1111 !
b1011 !
b10 "
1+
1.
0,
#50000
b1001 !
b1000 !
0.
00
#55000
b1100 !
b0 "
b1110 !
0+
10
1,
#60000
b110 !
b1 "
b111 !
b11 !
b1 !
1/
1.
00
0,
0-
#65000
b11 "
b1001 !
b10 "
b1000 !
b1100 !
0.
1,
1-
0/
1+
12
1*
1#
#70000
b1110 !
10
#75000
b11 "
b1111 !
b1101 !
1.
00
1/
11
#80000
b1 "
b101 !
b1 !
b11 !
10
0,
0-
0+
#90000
b11 "
b1011 !
b1111 !
1,
1-
1+
#95000
b10 "
b1110 !
b110 !
0.
0-
0/
01
02
0*
0#
12
1*
1#
#100000
b100 !
00
#105000
b0 "
b1 "
b101 !
b1101 !
b1111 !
1.
10
1-
1/
0+
11
02
0*
0#
12
1*
1#
#110000
b1011 !
b11 "
b1010 !
b10 !
b0 !
1+
0.
00
0,
0-
02
0*
0#
#115000
b1 "
0+
01
12
1*
1#
02
0*
0#
#120000
b100 !
b1100 !
1,
1-
#125000
b1101 !
b1111 !
b11 "
b1011 !
1+
1.
10
0,
11
12
1*
1#
#130000
b11 !
b10 !
b0 !
b1 "
b100 !
0+
0.
00
1,
0-
01
02
0*
0#
#135000
b101 !
b11 "
1+
1.
11
12
1*
1#
02
0*
0#
#140000
b10 "
b111 !
b11 !
b10 !
0.
10
0,
0/
01
#145000
b1010 !
b11 "
b1000 !
b1001 !
1/
1.
00
1-
11
12
1*
1#
#150000
b1 "
b1011 !
10
0+
#155000
b11 "
1+
#160000
b1111 !
b111 !
b10 "
b101 !
b0 "
0/
0+
00
1,
0-
#165000
b100 !
b110 !
0.
10
01
02
0*
0#
#170000
b10 !
b1010 !
b10 "
b1011 !
1+
1.
0,
1-
#175000
b1111 !
b0 "
0+
1,
11
12
1*
1#
#180000
b1 "
b1101 !
00
1/
01
02
0*
0#
#185000
b101 !
b100 !
b0 !
b11 "
b10 "
b10 !
0/
1+
0.
10
0,
0-
#190000
b1010 !
b1110 !
b11 "
b1100 !
1/
00
1,
1-
11
12
1*
1#
#195000
b1000 !
b1010 !
10
0,
#200000
b1 "
b10 !
b0 "
b110 !
1,
0-
0/
0+
01
02
0*
0#
#210000
b111 !
b10 "
b1111 !
b11 "
1/
1+
1.
1-
11
12
1*
1#
#215000
b1101 !
b1001 !
b10 "
0/
00
0,
01
02
0*
0#
#220000
b1 !
b11 !
b111 !
10
1,
0-
12
1*
1#
#225000
b11 "
b1111 !
1-
1/
11
#230000
b1011 !
b11 !
0,
0-
02
0*
0#
#235000
b10 !
b1 "
b0 !
b0 "
b100 !
b1100 !
0/
0+
0.
00
1,
1-
01
12
1*
1#
02
0*
0#
#240000
b10 "
b1000 !
b0 !
0,
0-
1+
#245000
b10 !
b11 "
1/
10
11
#250000
b1010 !
1-
12
1*
1#
#255000
b1 "
b1000 !
b0 "
b0 !
00
0-
0/
0+
01
02
0*
0#
#260000
b100 !
b110 !
b1110 !
10
1,
1-
#265000
b1111 !
b1 "
b1101 !
1/
1.
00
#270000
b101 !
b0 "
0/
0-
11
12
1*
1#
#275000
b10 "
b1 !
b0 !
b10 !
b1010 !
0.
10
0,
1-
1+
01
02
0*
0#
#280000
b0 "
b1011 !
1.
0+
11
12
1*
1#
#285000
b1 "
b1111 !
b1101 !
b11 "
b1100 !
0.
00
1,
1/
1+
#290000
b100 !
b0 !
b1 "
0+
0,
0-
01
02
0*
0#
#295000
b1 !
b1001 !
b11 "
1+
1.
1-
11
12
1*
1#
#300000
b10 "
b1011 !
b1111 !
b111 !
b0 "
10
1,
0-
0/
0+
#305000
b110 !
b10 !
0.
0,
01
02
0*
0#
#310000
b0 !
b1000 !
b1100 !
00
1,
1-
#315000
b1 "
1/
#320000
b11 "
b1110 !
b1010 !
b10 "
10
0,
0/
1+
#325000
b1011 !
b0 "
b1001 !
b1101 !
b1 "
1/
0+
1.
00
1,
#330000
b101 !
b111 !
b11 !
b0 "
0/
10
0,
0-
11
12
1*
1#
#335000
b10 !
b10 "
b1010 !
b1110 !
1+
0.
1,
1-
01
#340000
b1100 !
b1101 !
b101 !
b1 !
1.
00
0,
0-
02
0*
0#
#345000
b11 "
b11 !
b1011 !
10
1-
1/
11
12
1*
1#
#350000
b1111 !
b1101 !
b101 !
00
1,
0-
02
0*
0#
#355000
b1 "
b1 !
b11 !
10
0,
0+
12
1*
1#
#360000
b10 !
b11 "
b110 !
b100 !
1+
0.
00
1,
02
0*
0#
#365000
b1100 !
b1101 !
b1111 !
1.
10
1-
12
1*
1#
#370000
b111 !
0-
02
0*
0#
#375000
b1 "
b11 !
0,
0+
12
1*
1#
#380000
b0 "
b1011 !
b10 "
b1111 !
1,
1-
0/
1+
01
#385000
b1110 !
b1100 !
b11 "
b1000 !
1/
0.
00
0,
11
02
0*
0#
12
1*
1#
#390000
b0 !
b1 !
b11 !
b111 !
1.
10
1,
0-
02
0*
0#
#395000
b1 "
b0 "
0/
0+
12
1*
1#
#400000
b1111 !
b1110 !
b1100 !
b1000 !
b10 "
b11 "
1/
1+
0.
00
0,
1-
#405000
b1001 !
b1011 !
b1111 !
b10 "
0/
1.
10
1,
01
#410000
b111 !
b110 !
b100 !
b11 "
1/
0.
00
0-
11
02
0*
0#
#415000
b0 !
b1000 !
0,
1-
12
1*
1#
#420000
b1 "
b1001 !
b1011 !
b0 "
b1111 !
1.
10
1,
0/
0+
#425000
b1110 !
0.
01
02
0*
0#
#430000
b10 "
b1100 !
b11 "
b1101 !
1.
00
1/
1+
11
12
1*
1#
#435000
b1 "
b0 "
b1100 !
0.
0/
0+
01
02
0*
0#
#440000
b1000 !
b1 "
1/
0,
#445000
b0 !
b11 "
b10 "
0/
1+
0-
#450000
b100 !
b1100 !
b0 "
0+
1,
1-
#455000
b1110 !
10
#460000
b110 !
b10 "
b100 !
1+
00
0-
12
1*
1#
#465000
b1100 !
b0 "
b1110 !
0+
10
1-
02
0*
0#
#470000
b1111 !
b1011 !
b11 !
b1 !
1.
00
0,
0-
11
12
1*
1#
#475000
b1 "
b11 !
10
1/
#485000
b10 !
b1010 !
b0 "
0/
0.
1-
01
02
0*
0#
#490000
b10 "
b10 !
b11 "
0-
1/
1+
11
#495000
b0 !
b1 "
0+
00
01
12
1*
1#
02
0*
0#
#500000
b1 !
b1001 !
b0 "
b10 "
0/
1+
1.
1-
#505000
b1101 !
b1100 !
b11 "
b1 "
1/
0+
0.
1,
#510000
b1000 !
b11 "
1+
0,
11
12
1*
1#
#515000
b1010 !
b1011 !
b1 "
0+
1.
10
#520000
b11 !
b111 !
b110 !
b11 "
1+
0.
1,
0-
02
0*
0#
#525000
b10 "
b100 !
b1100 !
00
1-
0/
01
12
1*
1#
#530000
b1000 !
b0 "
b1 "
b1010 !
1/
0+
10
0,
11
02
0*
0#
12
1*
1#
#535000
b1110 !
1,
#540000
b1111 !
b111 !
b11 "
b10 "
0/
1+
1.
0-
01
02
0*
0#
12
1*
1#
#545000
b11 !
b1011 !
b11 "
1/
0,
1-
11
02
0*
0#
12
1*
1#
#550000
b1001 !
b1000 !
b1 "
b1100 !
b100 !
0+
0.
00
1,
0-
01
02
0*
0#
#555000
b110 !
b11 "
b1110 !
1+
10
1-
11
12
1*
1#
#560000
b10 "
b1111 !
b0 "
1.
0/
0+
#565000
b1011 !
b11 !
b10 !
0.
0,
0-
01
02
0*
0#
#570000
b1 "
b11 "
b1010 !
b1011 !
1.
1-
1/
1+
11
12
1*
1#
#575000
b1111 !
b111 !
1,
0-
02
0*
0#
#580000
b11 !
0,
#585000
b1 !
b101 !
00
1,
#590000
b1 "
b100 !
0.
0+
01
12
1*
1#
02
0*
0#
#595000
b110 !
b11 "
1+
10
11
12
1*
1#
02
0*
0#
#600000
b10 "
b1110 !
b1111 !
b1101 !
b0 "
1.
00
1-
0/
0+
12
1*
1#
#605000
b101 !
b100 !
0.
0-
01
02
0*
0#
#610000
b10 "
b1100 !
b1101 !
1.
1-
1+
12
1*
1#
#615000
b1001 !
b1011 !
b0 "
0+
10
0,
11
02
0*
0#
12
1*
1#
#620000
b11 !
0-
#625000
b1 "
b1 !
b11 "
00
1/
1+
02
0*
0#
#630000
b0 !
b1000 !
0.
1-
12
1*
1#
#635000
b1010 !
b1 "
b10 !
0+
10
0-
#640000
b0 "
b0 !
b10 "
b1000 !
00
1-
0/
1+
01
02
0*
0#
#645000
b1100 !
b1101 !
b0 "
0+
1.
1,
11
12
1*
1#
#650000
b1111 !
b111 !
b11 !
b10 !
0.
10
0,
0-
01
02
0*
0#
#655000
b10 "
b110 !
1,
1+
12
1*
1#
#660000
b11 "
b1 "
b10 !
0,
1/
0+
11
02
0*
0#
12
1*
1#
#665000
b0 "
b10 "
b110 !
1,
0/
1+
01
02
0*
0#
12
1*
1#
#670000
b0 "
0+
02
0*
0#
#675000
b1110 !
b1 "
b1010 !
b11 "
1/
1+
0,
1-
11
12
1*
1#
#680000
b1000 !
b10 "
b1100 !
b0 "
0/
0+
00
1,
01
02
0*
0#
#685000
b100 !
b110 !
b1 "
b11 "
1/
1+
10
0-
11
12
1*
1#
02
0*
0#
#690000
b111 !
b1111 !
b1101 !
b10 "
0/
1.
00
1-
01
12
1*
1#
#695000
b101 !
b111 !
10
0-
#700000
b11 !
b10 !
b1010 !
0.
0,
1-
02
0*
0#
#705000
b1000 !
b1100 !
b1101 !
b101 !
1.
00
1,
0-
12
1*
1#
#710000
b111 !
b110 !
b1110 !
0.
10
1-
#715000
b0 "
b1010 !
b1011 !
b11 !
1.
0,
0-
0+
11
02
0*
0#
12
1*
1#
#720000
b111 !
b110 !
b1110 !
0.
1,
1-
01
02
0*
0#
#725000
b1100 !
b10 "
1+
00
12
1*
1#
#730000
b11 "
b1110 !
b1 "
10
1/
0+
11
02
0*
0#
12
1*
1#
#735000
b1010 !
b10 !
0,
0-
#740000
b11 !
1.
#745000
b11 "
b111 !
b110 !
0.
1,
1+
02
0*
0#
#750000
b10 "
b1110 !
b0 "
b1111 !
1.
1-
0/
0+
12
1*
1#
#755000
b1 "
b11 "
1/
1+
#760000
b1011 !
b1010 !
b10 "
b0 "
0/
0+
0.
0,
01
02
0*
0#
#765000
b1000 !
b0 !
b1 !
b1 "
b11 "
1/
1+
1.
00
0-
11
#770000
b101 !
b111 !
b1111 !
b1110 !
b10 "
0/
0.
10
1,
1-
01
12
1*
1#
#775000
b0 "
b1 "
1/
0+
11
02
0*
0#
12
1*
1#
#780000
b1010 !
b1000 !
b0 !
b1 !
b11 "
b10 "
0/
1+
1.
00
0,
0-
01
02
0*
0#
#785000
b11 !
b1011 !
b1010 !
b0 "
0+
0.
10
1-
#790000
b1 "
b1000 !
00
1/
#795000
b1100 !
b100 !
b0 "
0/
1,
0-
#800000
b110 !
b1110 !
b1 "
1/
10
1-
11
12
1*
1#
#805000
b1111 !
b1011 !
b1001 !
1.
00
0,
01
02
0*
0#
#810000
b1101 !
1,
#815000
b11 "
b1100 !
b1110 !
b1010 !
0.
10
0,
1+
11
12
1*
1#
#820000
b10 !
b10 "
b110 !
0/
1,
0-
01
02
0*
0#
12
1*
1#
#825000
b111 !
b101 !
b1101 !
b11 "
b1001 !
1/
1.
00
0,
1-
11
02
0*
0#
12
1*
1#
#830000
b1 "
b1000 !
b1100 !
0.
1,
0+
01
02
0*
0#
#835000
b1110 !
b1111 !
b1011 !
1.
10
0,
11
12
1*
1#
#840000
b1010 !
0.
#845000
b10 !
b11 "
1+
0-
02
0*
0#
#850000
b10 "
b11 !
b1011 !
1.
1-
0/
01
12
1*
1#
02
0*
0#
#855000
b0 "
0+
11
12
1*
1#
#860000
b1111 !
b1 "
b1110 !
1/
0.
1,
#865000
b1100 !
b100 !
b11 "
b10 "
0/
1+
00
0-
01
02
0*
0#
12
1*
1#
#870000
b0 !
b0 "
0+
0,
02
0*
0#
#875000
b1000 !
b1 "
b1100 !
b11 "
1/
1+
1,
1-
11
12
1*
1#
#880000
b1101 !
b1111 !
b1011 !
1.
10
0,
#885000
b11 !
b10 "
b0 "
b1 !
0/
0+
00
0-
#890000
b101 !
b1101 !
b1 "
b1111 !
1/
10
1,
1-
#895000
b1110 !
b11 "
b1010 !
b10 "
b1000 !
0/
1+
0.
00
0,
01
02
0*
0#
#900000
b1001 !
b1011 !
1.
10
#905000
b11 "
1/
11
12
1*
1#
#910000
b1 "
b1010 !
0.
0+
#915000
b0 "
0/
01
02
0*
0#
#920000
b10 !
b110 !
b100 !
b101 !
b1 "
1/
1.
00
1,
0-
#925000
b11 "
b111 !
b110 !
0.
10
1+
11
12
1*
1#
02
0*
0#
#930000
b1110 !
b1010 !
b1 "
b1011 !
0+
1.
0,
1-
12
1*
1#
#935000
b1001 !
b1 !
b101 !
b100 !
0.
00
1,
0-
01
02
0*
0#
#940000
b11 "
b1100 !
b1101 !
1.
1-
1+
11
12
1*
1#
#945000
b10 "
b101 !
b100 !
0.
0-
0/
01
02
0*
0#
12
1*
1#
#950000
b110 !
b1110 !
10
1-
#955000
b1010 !
b11 "
b1011 !
b1001 !
1/
1.
00
0,
11
02
0*
0#
12
1*
1#
#960000
b1 "
b1 !
b0 "
b11 !
10
0-
0/
0+
#965000
b111 !
b110 !
b10 "
b1110 !
b11 "
b1100 !
1/
1+
0.
00
1,
1-
#970000
b1000 !
b10 "
0/
0,
01
02
0*
0#
#975000
b0 "
b1010 !
b1 "
10
1/
0+
11
12
1*
1#
#980000
b1011 !
b11 !
b11 "
b1 !
b10 "
0/
1+
1.
00
0-
01
02
0*
0#
#985000
b101 !
b1101 !
b0 "
b1111 !
b1 "
1/
0+
10
1,
1-
11
12
1*
1#
#990000
b11 "
b10 "
0/
1+
01
#995000
b111 !
b101 !
00
0-
